\relax 
\@writefile{toc}{\contentsline {chapter}{\numberline {1}Espacios verticales}{1}}
\@writefile{lof}{\addvspace {10\p@ }}
\@writefile{lot}{\addvspace {10\p@ }}
\@writefile{toc}{\contentsline {chapter}{\numberline {2}Espacios horizontales}{2}}
\@writefile{lof}{\addvspace {10\p@ }}
\@writefile{lot}{\addvspace {10\p@ }}
\@writefile{toc}{\contentsline {chapter}{\numberline {3}P\IeC {\'a}rrafos}{3}}
\@writefile{lof}{\addvspace {10\p@ }}
\@writefile{lot}{\addvspace {10\p@ }}
\@writefile{toc}{\contentsline {section}{\numberline {3.1}Centrado}{3}}
\@writefile{toc}{\contentsline {section}{\numberline {3.2}Derecha}{3}}
\@writefile{toc}{\contentsline {section}{\numberline {3.3}Izquierda}{3}}
